notebooks/end2end_example/cybersecurity/output_ipstitch_ooc_rtlsim/report/verify_rtlsim_0.vcd
$version Generated by VerilatedVcd $end
$date Fri Jan 26 19:09:09 2024 $end
$timescale 1ps $end

 $scope module TOP $end
  $var wire  1 # ap_clk $end
  $var wire  1 $ ap_rst_n $end
  $var wire  8 % m_axis_0_tdata [7:0] $end
  $var wire  1 & m_axis_0_tready $end
  $var wire  1 ' m_axis_0_tvalid $end
  $var wire  8 ( s_axis_0_tdata [7:0] $end
  $var wire  1 ) s_axis_0_tready $end
  $var wire  1 * s_axis_0_tvalid $end
  $scope module finn_design_wrapper $end
   $var wire  1 # ap_clk $end
   $var wire  1 $ ap_rst_n $end
   $var wire  8 % m_axis_0_tdata [7:0] $end
   $var wire  1 & m_axis_0_tready $end
   $var wire  1 ' m_axis_0_tvalid $end
   $var wire  8 ( s_axis_0_tdata [7:0] $end
   $var wire  1 ) s_axis_0_tready $end
   $var wire  1 * s_axis_0_tvalid $end
  $upscope $end
 $upscope $end
$enddefinitions $end


#5
1#
1$
b00000000 %
0&
0'
b00000000 (
1)
0*
#10
#15
#20
#25
1&
b11111111 (
1*
#30
#35
0#
#40
#45
1#
#50
#55
0#
#60
#65
1#
#70
#75
0#
#80
#85
1#
#90
#95
0#
#100
#105
1#
#110
#115
0#
#120
#125
1#
#130
#135
0#
#140
#145
1#
#150
#155
0#
#160
#165
1#
#170
#175
0#
#180
#185
1#
#190
#195
0#
#200
#205
1#
#210
#215
0#
#220
#225
1#
#230
#235
0#
#240
#245
1#
#250
#255
0#
#260
#265
1#
#270
#275
0#
#280
#285
1#
#290
#295
0#
#300
#305
1#
#310
#315
0#
#320
#325
1#
#330
#335
0#
#340
#345
1#
#350
#355
0#
#360
#365
1#
#370
#375
0#
#380
#385
1#
#390
#395
0#
#400
#405
1#
#410
#415
0#
#420
#425
1#
#430
#435
0#
#440
#445
1#
#450
#455
0#
#460
#465
1#
#470
#475
0#
#480
#485
1#
#490
#495
0#
#500
#505
1#
#510
#515
0#
#520
#525
1#
#530
#535
0#
#540
#545
1#
#550
#555
0#
#560
#565
1#
#570
#575
0#
#580
#585
1#
#590
#595
0#
b00000001 (
#600
#605
1#
#610
#615
0#
b11111111 (
#620
#625
1#
#630
#635
0#
b00000001 (
#640
#645
1#
#650
#655
0#
#660
#665
1#
#670
#675
0#
b11111111 (
#680
#685
1#
#690
#695
0#
b00000001 (
#700
#705
1#
#710
#715
0#
#720
#725
1#
#730
#735
0#
#740
#745
1#
#750
#755
0#
b11111111 (
#760
#765
1#
#770
#775
0#
b00000001 (
#780
#785
1#
#790
#795
0#
#800
#805
1#
#810
#815
0#
#820
#825
1#
#830
#835
0#
b11111111 (
#840
#845
1#
#850
#855
0#
#860
#865
1#
#870
#875
0#
#880
#885
1#
#890
#895
0#
#900
#905
1#
#910
#915
0#
#920
#925
1#
#930
#935
0#
b00000001 (
#940
#945
1#
#950
#955
0#
b11111111 (
#960
#965
1#
#970
#975
0#
b00000001 (
#980
#985
1#
#990
#995
0#
b11111111 (
