notebooks/end2end_example/cybersecurity/output_ipstitch_ooc_rtlsim/report/verify_rtlsim_30.vcd
$version Generated by VerilatedVcd $end
$date Sun Feb 11 04:39:26 2024 $end
$timescale 1ps $end

 $scope module TOP $end
  $var wire  1 # ap_clk $end
  $var wire  1 $ ap_rst_n $end
  $var wire  8 % m_axis_0_tdata [7:0] $end
  $var wire  1 & m_axis_0_tready $end
  $var wire  1 ' m_axis_0_tvalid $end
  $var wire 40 ( s_axis_0_tdata [39:0] $end
  $var wire  1 * s_axis_0_tready $end
  $var wire  1 + s_axis_0_tvalid $end
  $scope module finn_design_wrapper $end
   $var wire  1 # ap_clk $end
   $var wire  1 $ ap_rst_n $end
   $var wire  8 % m_axis_0_tdata [7:0] $end
   $var wire  1 & m_axis_0_tready $end
   $var wire  1 ' m_axis_0_tvalid $end
   $var wire 40 ( s_axis_0_tdata [39:0] $end
   $var wire  1 * s_axis_0_tready $end
   $var wire  1 + s_axis_0_tvalid $end
  $upscope $end
 $upscope $end
$enddefinitions $end


#5
1#
1$
b00000000 %
0&
0'
b0000000000000000000000000000000000000000 (
1*
0+
#10
#15
#20
#25
1&
b1000001110111011100000000000000000000000 (
1+
#30
#35
0#
b0000000000000000000000000100000000000010 (
#40
#45
1#
#50
#55
0#
b0000000000000000000000000001011011010000 (
#60
#65
1#
#70
#75
0#
b0000011111110110111110011011011000111010 (
#80
#85
1#
#90
#95
0#
b0001111000111110001110101110110100000000 (
#100
#105
1#
#110
#115
0#
b0000000000000000000000000000000000000000 (
#120
#125
1#
#130
#135
0#
b0000111000000000000000000000000000000000 (
#140
#145
1#
#150
#155
0#
b0000000000000000000000000000000000000000 (
#160
#165
1#
#170
#175
0#
#180
#185
1#
#190
#195
0#
#200
#205
1#
#210
#215
0#
#220
#225
1#
#230
#235
0#
#240
#245
1#
#250
#255
0#
b0000000000000000000000000001011011010000 (
#260
#265
1#
#270
#275
0#
b0000100000100000010010000000000000000000 (
#280
#285
1#
#290
#295
0#
b0000000001000001000000000000000010000010 (
#300
#305
1#
#310
#315
0#
b0000000000000000000000000000000000000000 (
0+
