notebooks/end2end_example/cybersecurity/output_ipstitch_ooc_rtlsim/report/verify_rtlsim_48.vcd
$version Generated by VerilatedVcd $end
$date Sun Feb 11 04:40:19 2024 $end
$timescale 1ps $end

 $scope module TOP $end
  $var wire  1 # ap_clk $end
  $var wire  1 $ ap_rst_n $end
  $var wire  8 % m_axis_0_tdata [7:0] $end
  $var wire  1 & m_axis_0_tready $end
  $var wire  1 ' m_axis_0_tvalid $end
  $var wire 40 ( s_axis_0_tdata [39:0] $end
  $var wire  1 * s_axis_0_tready $end
  $var wire  1 + s_axis_0_tvalid $end
  $scope module finn_design_wrapper $end
   $var wire  1 # ap_clk $end
   $var wire  1 $ ap_rst_n $end
   $var wire  8 % m_axis_0_tdata [7:0] $end
   $var wire  1 & m_axis_0_tready $end
   $var wire  1 ' m_axis_0_tvalid $end
   $var wire 40 ( s_axis_0_tdata [39:0] $end
   $var wire  1 * s_axis_0_tready $end
   $var wire  1 + s_axis_0_tvalid $end
  $upscope $end
 $upscope $end
$enddefinitions $end


#5
1#
1$
b00000000 %
0&
0'
b0000000000000000000000000000000000000000 (
1*
0+
#10
#15
#20
#25
1&
b1000001000111000001100000000101111000000 (
1+
#30
#35
0#
b0000000000011000000000000101000000000000 (
#40
#45
1#
#50
#55
0#
b0000110000100000000000000001101000010000 (
#60
#65
1#
#70
#75
0#
b1111011111110110001111100100000000000000 (
#80
#85
1#
#90
#95
0#
b0001011101110110000000000000000000000011 (
#100
#105
1#
#110
#115
0#
b0000010000000000010000000111000000000000 (
#120
#125
1#
#130
#135
0#
b0000000011101000110110000000000100000000 (
#140
#145
1#
#150
#155
0#
b1011011101000000001010011100011101010000 (
#160
#165
1#
#170
#175
0#
b1011001111110111000000000001100100001101 (
#180
#185
1#
#190
#195
0#
b1000110000001111110111111010101011111111 (
#200
#205
1#
#210
#215
0#
b0111111110010000010010101101001001111111 (
#220
#225
1#
#230
#235
0#
b0000001001000000010000100000101001001000 (
#240
#245
1#
#250
#255
0#
b0000000000000000101101000001010110000000 (
#260
#265
1#
#270
#275
0#
b0000100000100000100101000000000000000000 (
#280
#285
1#
#290
#295
0#
b0000000011000001000000000000000110000010 (
#300
#305
1#
#310
#315
0#
b0000000000000000000000000000000000000000 (
0+
