notebooks/end2end_example/cybersecurity/output_ipstitch_ooc_rtlsim/report/verify_rtlsim_6.vcd
$version Generated by VerilatedVcd $end
$date Tue Jan 23 13:48:56 2024 $end
$timescale 1ps $end

 $scope module TOP $end
  $var wire  1 # ap_clk $end
  $var wire  1 $ ap_rst_n $end
  $var wire  8 % m_axis_0_tdata [7:0] $end
  $var wire  1 & m_axis_0_tready $end
  $var wire  1 ' m_axis_0_tvalid $end
  $var wire 40 ( s_axis_0_tdata [39:0] $end
  $var wire  1 * s_axis_0_tready $end
  $var wire  1 + s_axis_0_tvalid $end
  $scope module finn_design_wrapper $end
   $var wire  1 # ap_clk $end
   $var wire  1 $ ap_rst_n $end
   $var wire  8 % m_axis_0_tdata [7:0] $end
   $var wire  1 & m_axis_0_tready $end
   $var wire  1 ' m_axis_0_tvalid $end
   $var wire 40 ( s_axis_0_tdata [39:0] $end
   $var wire  1 * s_axis_0_tready $end
   $var wire  1 + s_axis_0_tvalid $end
  $upscope $end
 $upscope $end
$enddefinitions $end


#5
1#
1$
b00000000 %
0&
0'
b0000000000000000000000000000000000000000 (
1*
0+
#10
#15
#20
#25
1&
b1101110011000000000000000000000000000000 (
1+
#30
#35
0#
b0000000000000000001000000000000101000001 (
#40
#45
1#
#50
#55
0#
b0000000000000000000000101011110000000000 (
#60
#65
1#
#70
#75
0#
b1111110111001110010101011110101100000000 (
#80
#85
1#
#90
#95
0#
b0010010101011101001111100010000000000011 (
#100
#105
1#
#110
#115
0#
b0000000000000000000000000000000000000100 (
#120
#125
1#
#130
#135
0#
b0000000000000000000000000000000000000000 (
#140
#145
1#
#150
#155
0#
b0000000000000000000000000000000000000011 (
#160
#165
1#
#170
#175
0#
b0000000000000000000000000000000000000000 (
#180
#185
1#
#190
#195
0#
#200
#205
1#
#210
#215
0#
#220
#225
1#
#230
#235
0#
#240
#245
1#
#250
#255
0#
b0000000000000000000000101011110000000000 (
#260
#265
1#
#270
#275
0#
b0000100000100100000000000000000000000000 (
#280
#285
1#
#290
#295
0#
b0010000010000000000000000100000100000010 (
#300
#305
1#
#310
#315
0#
b0000000000000000000000000000000000000000 (
0+
