notebooks/end2end_example/cybersecurity/output_ipstitch_ooc_rtlsim/report/verify_rtlsim_35.vcd
$version Generated by VerilatedVcd $end
$date Sun Feb 11 04:39:41 2024 $end
$timescale 1ps $end

 $scope module TOP $end
  $var wire  1 # ap_clk $end
  $var wire  1 $ ap_rst_n $end
  $var wire  8 % m_axis_0_tdata [7:0] $end
  $var wire  1 & m_axis_0_tready $end
  $var wire  1 ' m_axis_0_tvalid $end
  $var wire 40 ( s_axis_0_tdata [39:0] $end
  $var wire  1 * s_axis_0_tready $end
  $var wire  1 + s_axis_0_tvalid $end
  $scope module finn_design_wrapper $end
   $var wire  1 # ap_clk $end
   $var wire  1 $ ap_rst_n $end
   $var wire  8 % m_axis_0_tdata [7:0] $end
   $var wire  1 & m_axis_0_tready $end
   $var wire  1 ' m_axis_0_tvalid $end
   $var wire 40 ( s_axis_0_tdata [39:0] $end
   $var wire  1 * s_axis_0_tready $end
   $var wire  1 + s_axis_0_tvalid $end
  $upscope $end
 $upscope $end
$enddefinitions $end


#5
1#
1$
b00000000 %
0&
0'
b0000000000000000000000000000000000000000 (
1*
0+
#10
#15
#20
#25
1&
b1010101000111001000010110000001111000000 (
1+
#30
#35
0#
b0000000000000100000000000101000000000000 (
#40
#45
1#
#50
#55
0#
b0000101001001000000000000000001100110000 (
#60
#65
1#
#70
#75
0#
b1111011111000101001110110100000000000000 (
#80
#85
1#
#90
#95
0#
b0001010000110101000000000000000000000011 (
#100
#105
1#
#110
#115
0#
b0000010000000000011101001000001000000000 (
#120
#125
1#
#130
#135
0#
b0000111000001101010110000000000010000000 (
#140
#145
1#
#150
#155
0#
b1100101101000000001010000000010111100000 (
#160
#165
1#
#170
#175
0#
b1110111001101001000000000000011111100011 (
#180
#185
1#
#190
#195
0#
b0110100100001000001101010111101001111111 (
#200
#205
1#
#210
#215
0#
b0111111111001000011001011111010110000011 (
#220
#225
1#
#230
#235
0#
b1100011010000001010000100000110001110000 (
#240
#245
1#
#250
#255
0#
b0000000010000000110010010000100101000011 (
#260
#265
1#
#270
#275
0#
b0000100000100000100010000000111010000000 (
#280
#285
1#
#290
#295
0#
b0000000011000010000010000000000010000010 (
#300
#305
1#
#310
#315
0#
b0000000000000000000000000000000000000000 (
0+
