notebooks/end2end_example/cybersecurity/output_ipstitch_ooc_rtlsim/report/verify_rtlsim_46.vcd
$version Generated by VerilatedVcd $end
$date Sun Feb 11 04:40:13 2024 $end
$timescale 1ps $end

 $scope module TOP $end
  $var wire  1 # ap_clk $end
  $var wire  1 $ ap_rst_n $end
  $var wire  8 % m_axis_0_tdata [7:0] $end
  $var wire  1 & m_axis_0_tready $end
  $var wire  1 ' m_axis_0_tvalid $end
  $var wire 40 ( s_axis_0_tdata [39:0] $end
  $var wire  1 * s_axis_0_tready $end
  $var wire  1 + s_axis_0_tvalid $end
  $scope module finn_design_wrapper $end
   $var wire  1 # ap_clk $end
   $var wire  1 $ ap_rst_n $end
   $var wire  8 % m_axis_0_tdata [7:0] $end
   $var wire  1 & m_axis_0_tready $end
   $var wire  1 ' m_axis_0_tvalid $end
   $var wire 40 ( s_axis_0_tdata [39:0] $end
   $var wire  1 * s_axis_0_tready $end
   $var wire  1 + s_axis_0_tvalid $end
  $upscope $end
 $upscope $end
$enddefinitions $end


#5
1#
1$
b00000000 %
0&
0'
b0000000000000000000000000000000000000000 (
1*
0+
#10
#15
#20
#25
1&
b1000001000111000001101101000011001000000 (
1+
#30
#35
0#
b0000000000011000000000000101000000000000 (
#40
#45
1#
#50
#55
0#
b0000110000100000000000000001101000010000 (
#60
#65
1#
#70
#75
0#
b1111011111111100110111111100000000000000 (
#80
#85
1#
#90
#95
0#
b0000010110001101000000000000000000000011 (
#100
#105
1#
#110
#115
0#
b0000010000000000000011100110100000000000 (
#120
#125
1#
#130
#135
0#
b0000011101100111000010000000000100000000 (
#140
#145
1#
#150
#155
0#
b0000010110000000001100101010000101100000 (
#160
#165
1#
#170
#175
0#
b1011001110001110000000000000001111011001 (
#180
#185
1#
#190
#195
0#
b1010100011001101010110001000010011111111 (
#200
#205
1#
#210
#215
0#
b0111111110010111111010100100110101000010 (
#220
#225
1#
#230
#235
0#
b0011101110000010111011000000110011110000 (
#240
#245
1#
#250
#255
0#
b0000000000000000101101000001010110000010 (
#260
#265
1#
#270
#275
0#
b0000100000100000100101000000000000000000 (
#280
#285
1#
#290
#295
0#
b0000000011000010000000000000000110000010 (
#300
#305
1#
#310
#315
0#
b0000000000000000000000000000000000000000 (
0+
